<?xml version="1.0" encoding="utf-8"?>
<!-- Generator: Adobe Illustrator 25.3.1, SVG Export Plug-In . SVG Version: 6.00 Build 0)  -->
<svg version="1.1" id="Layer_1" xmlns="http://www.w3.org/2000/svg" xmlns:xlink="http://www.w3.org/1999/xlink" x="0px" y="0px"
	 width="98px" height="88px" viewBox="0 0 98 88" style="enable-background:new 0 0 98 88;" xml:space="preserve">
<style type="text/css">
	.st0{fill:#FFFFFF;}
	.st1{fill:#78DEA2;}
</style>
<g>
	<path class="st0" d="M11.7,39.5c0,0-0.1,0-0.1,0l-9.2-0.7c-0.8-0.1-1.4-0.8-1.4-1.6c0.1-0.8,0.8-1.4,1.6-1.4l9.2,0.7
		c0.8,0.1,1.4,0.8,1.4,1.6C13.2,38.9,12.5,39.5,11.7,39.5z"/>
	<path class="st0" d="M11,52.2c-0.4,0-0.7-0.1-1-0.4c-0.6-0.6-0.7-1.5-0.1-2.1l3.8-4.3c0.6-0.6,1.5-0.7,2.1-0.1
		c0.6,0.6,0.7,1.5,0.1,2.1l-3.8,4.3C11.9,52,11.5,52.2,11,52.2z"/>
</g>
<g>
	<path class="st0" d="M86,42.1c-0.5,0-1-0.3-1.3-0.8c-0.4-0.7-0.1-1.6,0.6-2l8.1-4.4c0.7-0.4,1.6-0.1,2,0.6s0.1,1.6-0.6,2l-8.1,4.4
		C86.5,42.1,86.2,42.1,86,42.1z"/>
	<path class="st0" d="M91.8,53.3c-0.2,0-0.4,0-0.6-0.1L86,50.9c-0.8-0.3-1.1-1.2-0.8-2c0.3-0.8,1.2-1.1,2-0.8l5.3,2.3
		c0.8,0.3,1.1,1.2,0.8,2C93,53,92.4,53.3,91.8,53.3z"/>
</g>
<path class="st0" d="M50.4,32.3c-0.4,0-0.9-0.2-1.2-0.5c-3.8-4.6-10.1-7.1-15.8-6.2c-4.6,0.7-9.1,3.8-9.1,3.8
	c-0.7,0.5-1.6,0.3-2.1-0.4c-0.5-0.7-0.3-1.6,0.4-2.1c0.2-0.1,5.1-3.5,10.4-4.3c6.1-0.9,12.8,1.4,17.3,5.9c2.6-3.1,6.9-5.1,12.1-5.7
	c5.8-0.7,11.4,0.6,13.8,3.1c0.6,0.6,0.5,1.6-0.1,2.1c-0.6,0.6-1.6,0.5-2.1-0.1c-1.4-1.5-6-2.8-11.2-2.2c-5.2,0.6-9.2,2.7-11,5.9
	c-0.2,0.4-0.7,0.7-1.2,0.7C50.5,32.3,50.4,32.3,50.4,32.3z"/>
<path class="st0" d="M35.3,30.5c-1.1,0.1-2.1,0.5-2.8,1.3c-0.7,0.8-1.1,1.8-1,2.9c0.1,2.1,1.9,3.7,4,3.7c0.1,0,0.2,0,0.3,0
	c1.1-0.1,2.1-0.5,2.8-1.3c0.7-0.8,1.1-1.8,1-2.9C39.5,32,37.5,30.3,35.3,30.5z"/>
<path class="st0" d="M63.6,30.5c-1.1,0.1-2.1,0.5-2.8,1.3c-0.7,0.8-1.1,1.8-1,2.9c0.1,2.1,1.9,3.7,4,3.7c0.1,0,0.2,0,0.3,0
	c1.1-0.1,2.1-0.5,2.8-1.3c0.7-0.8,1.1-1.8,1-2.9C67.7,32,65.8,30.3,63.6,30.5z"/>
<path class="st0" d="M67.9,72.9c-0.2,0-0.4,0-0.7-0.2c-6.4-3.2-8.9-7.8-9.9-11.1c-1.1-3.6-0.6-6.5-0.6-6.6c0.1-0.8,0.9-1.4,1.7-1.2
	c0.8,0.1,1.4,0.9,1.2,1.7c-0.1,0.4-1.4,9.4,8.8,14.5c0.7,0.4,1,1.3,0.7,2C69,72.5,68.5,72.9,67.9,72.9z"/>
<path class="st1" d="M76.5,26.9c0-0.1,0-0.1,0-0.2c0,0,0-0.1,0-0.1c0-1.1-0.1-2.2-0.2-3.3c-0.1-1.4-0.2-3-0.2-4.9
	c0-0.1-0.5-11-3.8-11c-1.9,0-3,2.1-4.2,4.3c-0.5,0.9-1.4,2.6-1.8,2.9c-1.1,0-3.2,0.1-6.2,0.2c-7.8,0.3-25.9,1-29-0.1
	c-0.3-0.4-0.8-1.6-1.2-2.5c-1.3-3-2.7-6-5-5.1c-2.4,1-2.8,5.7-2.9,15.9c0,1.2,0,2.2,0,3c0,1.5,0,2.9,0.1,4.1c0,0.1,0,0.2,0,0.3
	c-0.2,17.8,3.8,31.3,11.8,40c6.1,6.6,14.6,10.4,24.1,10.6c0.3,0,0.5,0,0.8,0c9,0,17.1-3.3,17.3-7.1c0.2-5.3,0.5-30,0.6-44.8
	C76.6,28.3,76.6,27.6,76.5,26.9z M25,26.1c0-0.8,0-1.9,0-3c0-2.9,0.1-9.9,0.8-12.4c0.5,0.8,1,2.1,1.4,2.8c1,2.3,1.6,3.5,2.5,3.9
	c2.7,1.2,13.2,1.1,30.5,0.4c2.9-0.1,5.2-0.2,6.2-0.2c2,0,3.2-2.2,4.4-4.5c0.3-0.6,0.7-1.4,1.1-2c0.6,2,1.2,6.2,1.2,7.4
	c0,1.9,0.2,3.6,0.2,5c0.1,1.2,0.1,2.3,0.2,3.4c0,0.7,0,1.4,0,2.2c-0.1,1.9-0.3,4-0.9,6.7c-1.9,9-9,19.4-22.5,19.1
	c-17.8-0.4-22.3-13.6-22.5-14.1C25.9,35.2,24.8,31.9,25,26.1z M55.4,77.9C35,75.9,28.1,58.6,26,44.2c2.4,4.5,9,13.3,24.1,13.7
	c0.2,0,0.5,0,0.7,0c11.7,0,19-7.1,22.6-15.1c-0.1,13.1-0.4,27.1-0.5,31C72.7,75.2,65.2,78.8,55.4,77.9z"/>
<path class="st0" d="M50.3,45.9c-0.1,0-0.2,0-0.3,0c-0.7-0.1-2.2-0.4-5.2-9.6c-0.1-0.4-0.1-0.9,0.2-1.3s0.7-0.6,1.2-0.6l7.7-0.3
	c0.5,0,0.9,0.2,1.2,0.6c0.3,0.4,0.4,0.9,0.3,1.3c-0.5,1.8-2.4,7.9-3.6,9.4C51.3,45.7,50.8,45.9,50.3,45.9z M48.2,37.2
	c0.6,1.7,1.3,3.5,1.9,4.6c0.5-1.2,1.1-3,1.7-4.8L48.2,37.2z"/>
</svg>
