<?xml version="1.0" encoding="utf-8"?>
<!-- Generator: Adobe Illustrator 25.3.1, SVG Export Plug-In . SVG Version: 6.00 Build 0)  -->
<svg version="1.1" id="Layer_1" xmlns="http://www.w3.org/2000/svg" xmlns:xlink="http://www.w3.org/1999/xlink" x="0px" y="0px"
	 viewBox="0 0 38 56" style="enable-background:new 0 0 38 56;" xml:space="preserve">
<style type="text/css">
	.st0{fill:none;stroke:#78DEA2;stroke-width:3;stroke-miterlimit:10;}
</style>
<path class="st0" d="M29.2,6.6c0,0-6.8-3.9-14.2,1.2c-5.9,4-13.6,10.7-11.2,24.7C7,50.9,25.1,46.4,25.1,46.4s11.8-3,11-16.5
	c-1-15.9-17.5-26-35-13.9"/>
</svg>
